Status|Date|Title|Activity|Lenght|Twitch VOD|Recorded/Archive VOD|Archive Recorded VOD File
⚠🟢|2024/05/01 14:39|Slowly but surely spreading democracy - Helldivers 2|HELLDIVERS 2|1h51m|❓|✔ https://youtu.be/EPie6ASGC3k|https://archive.org/details/funoneko-vod_2024-05-01_14-39
✔🟢|2024/05/01 17:53|Slowly but surely spreading democracy - Helldivers 2|HELLDIVERS 2|0h28m|❓|✔ https://youtu.be/z04C0Ynvq_o|https://archive.org/details/funoneko-vod_2024-05-01_17-53
✔🟢|2024/05/01 18:09|Slowly but surely spreading democracy - Helldivers 2|HELLDIVERS 2|1h59m|❓|✔ https://youtu.be/7ugaFKRfVic|https://archive.org/details/funoneko-vod_2024-05-01_18-09
✔🟢|2024/05/02 14:01|Surely but slowly spreading democracy - Helldivers 2|HELLDIVERS 2|1h55m|❓|✔ https://youtu.be/uJcA_wH1Zyc|https://archive.org/details/funoneko-vod_2024-05-02_14-01
✔🟠|2024/05/02 18:26|Surely and slowly spreading democracy - Helldivers 2|HELLDIVERS 2|1h35m|❓|✔ https://youtu.be/7_w6Rp6LLnk|
✔🟢|2024/05/04 14:25|How 2 not spread democracy - Helldivers 2|HELLDIVERS 2|1h40m|❓|✔ https://youtu.be/6YQVGZ9axGs|https://archive.org/details/funoneko-vod_2024-05-04_14-25
✔🔴|2024/05/04 17:10|How 2 not spread democracy - Helldivers 2|HELLDIVERS 2|1h55m|https://www.twitch.tv/videos/2137130485|✔ https://youtu.be/mU3rA7LsiFU|
✔🟢|2024/05/06 18:17|CATDIVERS 2 (I sometime forgor to read chat sry)|HELLDIVERS 2|2h33m|❓|✔ https://youtu.be/\_dhuM-ck7rk|
✔🟢|2024/05/07 15:53|Trying to farm samples - HELLDIVERS 2|HELLDIVERS 2|1h52m|❓|✔ https://youtu.be/YdgyoX92FYk|
✔🟢|2024/05/08 18:57|Discovering COD MW 2019 campaign in French|Call of Duty: Modern Warfare|2h32m|https://www.twitch.tv/videos/2140594330|✔ https://youtu.be/vsP-CGAeyCU|
✔🟠|2024/05/09 14:22|Continuing COD MW 2019 campaign in French|Call of Duty: Modern Warfare|1h36m|https://www.twitch.tv/videos/2141277298|✔ https://youtu.be/QQIWFB8UESI|
✔🟢|2024/05/12 17:49|Cat behind the wheel what is gonna do! - FlatOut Ultimate Carnage|FlatOut 2|1h39m|https://www.twitch.tv/videos/2143991114|✔ https://youtu.be/R6rNh4OZkzU|
✔🟢|2024/05/13 16:21|Sweat Liberty My Cat ! - HELLDIVERS 2; FlatOut Ultimate Carnage|HELLDIVERS 2; FlatOut 2|3h31m|❓|✔ https://youtu.be/j0GgsxzGQh8; ✔ https://youtu.be/uWLQ3XfY8Qk|
✔🟢|2024/05/14 11:41|I try to design my VTuber, except I'm a noob|Art|5h06m|❓|✔ https://youtu.be/JRg2kB72fSE|
✔🟢|2024/05/14 19:01|COD MW 2019 campaign in French|Call of Duty: Modern Warfare|1h14m|https://www.twitch.tv/videos/2145622589|✔ https://youtu.be/ghCA3aoEtJY|
✔🟢|2024/05/14 21:22|COD MW 2019 campaign in French; Quick Helldivers 2|Call of Duty: Modern Warfare; HELLDIVERS 2|1h31m|https://www.twitch.tv/videos/2145735733|✔ https://youtu.be/wDPBqH3GqZk; ✔ https://youtu.be/I8b1PGG7FeU|
✔🟢|2024/05/15 18:50|Vrum ? Vroom ! - FlatOut Ultimate Carnage|HELLDIVERS 2\* (FlatOut 2)|2h22m|https://www.twitch.tv/videos/2146446138|✔ https://youtu.be/UDFgqPQAE6c	|
